<?xml version="1.0" encoding="UTF-8"?>
<svg width="12px" height="5px" viewBox="0 0 12 5" version="1.1" xmlns="http://www.w3.org/2000/svg" xmlns:xlink="http://www.w3.org/1999/xlink">
    <!-- Generator: Sketch 50.2 (55047) - http://www.bohemiancoding.com/sketch -->
    <title>arrow-up-icon</title>
    <desc>Created with Sketch.</desc>
    <defs></defs>
    <g id="Page-1" stroke="none" stroke-width="1" fill="none" fill-rule="evenodd" stroke-linecap="round" stroke-linejoin="round">
        <g id="Voucher" transform="translate(-641.000000, -641.000000)" stroke="#747474">
            <g id="Group" transform="translate(596.000000, 635.000000)">
                <polyline id="arrow-up-icon" transform="translate(51.000000, 8.500000) scale(1, -1) rotate(90.000000) translate(-51.000000, -8.500000) " points="48.5 3.5 53.5 8.5 48.5 13.5"></polyline>
            </g>
        </g>
    </g>
</svg>